{
  "LazyVim": { "branch": "pr/main", "commit": "a50f92f7550fb6e9f21c0852e6cb190e6fcd50f5" },
  "LuaSnip": { "branch": "pr/master", "commit": "2dbef19461198630b3d7c39f414d09fb07d1fdd2" },
  "bufferline.nvim": { "branch": "pr/main", "commit": "d6cb9b7cac52887bcac65f8698e67479553c0748" },
  "catppuccin": { "branch": "pr/main", "commit": "afab7ec2a79c7127627dede79c0018b6e45663d0" },
  "cmp-buffer": { "branch": "pr/main", "commit": "3022dbc9166796b644a841a02de8dd1cc1d311fa" },
  "cmp-nvim-lsp": { "branch": "pr/main", "commit": "5af77f54de1b16c34b23cba810150689a3a90312" },
  "cmp-path": { "branch": "pr/main", "commit": "91ff86cd9c29299a64f968ebb45846c485725f23" },
  "cmp_luasnip": { "branch": "pr/master", "commit": "05a9ab28b53f71d1aece421ef32fee2cb857a843" },
  "conform.nvim": { "branch": "pr/master", "commit": "d99b75b4aedf0e912f41c5740a7267de739cddac" },
  "dashboard-nvim": { "branch": "pr/master", "commit": "63df28409d940f9cac0a925df09d3dc369db9841" },
  "dressing.nvim": { "branch": "pr/master", "commit": "0e88293ce3459f4bb310125f3366304af6dc7990" },
  "flash.nvim": { "branch": "pr/main", "commit": "48817af25f51c0590653bbc290866e4890fe1cbe" },
  "friendly-snippets": { "branch": "pr/main", "commit": "aced40b66b7bae9bc2c37fd7b11841d54727a7b0" },
  "gitsigns.nvim": { "branch": "pr/main", "commit": "fb9fd5312476b51a42a98122616e1c448d823d5c" },
  "indent-blankline.nvim": { "branch": "pr/master", "commit": "12e92044d313c54c438bd786d11684c88f6f78cd" },
  "lazy.nvim": { "branch": "pr/main", "commit": "28126922c9b54e35a192ac415788f202c3944c9f" },
  "lualine.nvim": { "branch": "pr/master", "commit": "7d131a8d3ba5016229e8a1d08bf8782acea98852" },
  "mason-lspconfig.nvim": { "branch": "pr/main", "commit": "b9084b1f42f790d6230dc66dbcb6bcc35b148552" },
  "mason.nvim": { "branch": "pr/main", "commit": "dcd0ea30ccfc7d47e879878d1270d6847a519181" },
  "mini.ai": { "branch": "pr/main", "commit": "13a9074677e725e9ed230f860126db624b690dfc" },
  "mini.bufremove": { "branch": "pr/main", "commit": "020243bfed8c8b941f2c20626faf3ea39c0c0e1b" },
  "mini.comment": { "branch": "pr/main", "commit": "67f00d3ebbeae15e84584d971d0c32aad4f4f3a4" },
  "mini.indentscope": { "branch": "pr/main", "commit": "5a8369475cd7cd6f207a4d288406d03b0fc48bdb" },
  "mini.pairs": { "branch": "pr/main", "commit": "552062017ff207e1f35f7028bfb3f27c7421d22d" },
  "mini.surround": { "branch": "pr/main", "commit": "3c98c6be8028139a114081e06d2a9f1ac3f4b7fc" },
  "neo-tree.nvim": { "branch": "v3.x", "commit": "e578fe7a5832421b0d2c5b3c0a7a1e40e0f6a47a" },
  "neoconf.nvim": { "branch": "pr/main", "commit": "bf04719b3b25ba5f6a059c0a10ee67e5996bdc4c" },
  "neodev.nvim": { "branch": "pr/main", "commit": "64b2a51b02c6f2ae177c745e4d8bc801a339fe09" },
  "noice.nvim": { "branch": "pr/main", "commit": "bf67d70bd7265d075191e7812d8eb42b9791f737" },
  "nui.nvim": { "branch": "pr/main", "commit": "35da9ca1de0fc4dda96c2e214d93d363c145f418" },
  "nvim-cmp": { "branch": "pr/main", "commit": "538e37ba87284942c1d76ed38dd497e54e65b891" },
  "nvim-lint": { "branch": "pr/master", "commit": "8e5920f9ce9f24c283a2e64be5fe58d1d37d1744" },
  "nvim-lspconfig": { "branch": "pr/master", "commit": "8917d2c830e04bf944a699b8c41f097621283828" },
  "nvim-notify": { "branch": "pr/master", "commit": "80b67b265530632505193553d05127ae7fe09ddd" },
  "nvim-spectre": { "branch": "pr/master", "commit": "d958cc3ea8b3fb2f0922dff6177630a40751a3a9" },
  "nvim-treesitter": { "branch": "pr/master", "commit": "ed82d82b77e4fa3bd4593eda8fc4c4ff95a5eb25" },
  "nvim-treesitter-context": { "branch": "pr/master", "commit": "9c06b115abc57c99cf0aa81dc29490f5001f57a1" },
  "nvim-treesitter-textobjects": { "branch": "pr/master", "commit": "19a91a38b02c1c28c14e0ba468d20ae1423c39b2" },
  "nvim-ts-autotag": { "branch": "pr/main", "commit": "a65b202cfd08e0e69e531eab737205ff5bc082a4" },
  "nvim-ts-context-commentstring": { "branch": "pr/main", "commit": "1277b4a1f451b0f18c0790e1a7f12e1e5fdebfee" },
  "nvim-web-devicons": { "branch": "pr/master", "commit": "b427ac5f9dff494f839e81441fb3f04a58cbcfbc" },
  "persistence.nvim": { "branch": "pr/main", "commit": "4982499c1636eac254b72923ab826ee7827b3084" },
  "plenary.nvim": { "branch": "pr/master", "commit": "663246936325062427597964d81d30eaa42ab1e4" },
  "telescope-fzf-native.nvim": { "branch": "pr/main", "commit": "6c921ca12321edaa773e324ef64ea301a1d0da62" },
  "telescope.nvim": { "branch": "pr/master", "commit": "1bfbb1fb5c56d2dbe33216fcb2ebe82e499aa06c" },
  "todo-comments.nvim": { "branch": "pr/main", "commit": "833d8dd8b07eeda37a09e99460f72a02616935cb" },
  "tokyonight.nvim": { "branch": "pr/main", "commit": "e3301873c1e96903daebb98cc9b5926810bf73dd" },
  "trouble.nvim": { "branch": "pr/main", "commit": "f1168feada93c0154ede4d1fe9183bf69bac54ea" },
  "vim-illuminate": { "branch": "pr/master", "commit": "97c1265ff0b67064b6cfdc15bafc50202a537ae2" },
  "vim-startuptime": { "branch": "pr/master", "commit": "454b3de856b7bd298700de33d79774ca9b9e3875" },
  "which-key.nvim": { "branch": "pr/main", "commit": "4433e5ec9a507e5097571ed55c02ea9658fb268a" }
}