{
  "extras": [
    "lazyvim.plugins.extras.lang.ansible",
    "lazyvim.plugins.extras.lang.json",
    "lazyvim.plugins.extras.lang.markdown",
    "lazyvim.plugins.extras.lang.python",
    "lazyvim.plugins.extras.lang.terraform"
  ],
  "news": {
    "NEWS.md": "2123"
  },
  "version": 3
}